cz/cuni/mff/benesada/Server.class
cz/cuni/mff/benesada/TextAreaOutputStream.class
cz/cuni/mff/benesada/Figure$1.class
cz/cuni/mff/benesada/Rook.class
cz/cuni/mff/benesada/Figure$2.class
cz/cuni/mff/benesada/Figure.class
cz/cuni/mff/benesada/Main$ThreadForWaiting.class
cz/cuni/mff/benesada/Bot.class
cz/cuni/mff/benesada/Queen.class
cz/cuni/mff/benesada/Main$2$2.class
cz/cuni/mff/benesada/ClientHandler.class
cz/cuni/mff/benesada/Main$2$1.class
cz/cuni/mff/benesada/Main$3.class
cz/cuni/mff/benesada/King.class
cz/cuni/mff/benesada/Knight.class
cz/cuni/mff/benesada/Main$2.class
cz/cuni/mff/benesada/Main$4.class
cz/cuni/mff/benesada/Figure$4.class
cz/cuni/mff/benesada/Bishop.class
cz/cuni/mff/benesada/Main$1.class
cz/cuni/mff/benesada/Client.class
cz/cuni/mff/benesada/Pawn.class
cz/cuni/mff/benesada/Figure$3.class
cz/cuni/mff/benesada/Main.class
